{
  "openapi": "3.0.2",
  "info": {
    "title": "API Warungku",
    "version": "1.0",
    "description": "Aping Warungku with Restful API",
    "termsOfService": "https://warungku.com",
    "contact": {
      "name": "Anggit Putra",
      "email": "Anggitputra14@gmail.com"
    },
    "license": {
      "name": "APACHE 2.0",
      "url": "https://www.apache.org/licenses/LICENSE-2.0"
    }
  },
  "servers": [
    {
      "description": "Warungku URL restfull api",
      "url": "https://{environment}.warungku.com/api/v1",
      "variables": {
        "environment" : {
          "description": "Server Environment",
          "default": "dev",
          "enum": [
            "dev",
            "qa",
            "prod"
          ]
        }
      }
    }
  ],
  "paths": {
    "/todolist": {
      "get": {
        "security": [
          {
            "TodolistAuth": []
          }
        ],
        "tags": ["Todolist"],
        "summary": "Get all todolist",
        "description": "Get all active todolist",
        "responses": {
          "200": {
            "description": "Success get all todolist",
            "content": {
              "application/json": {
                "schema":{
                  "$ref": "#/components/schemas/ArrayTodolist"
                },
                "examples": {
                  "success": {
                    "description": "Example success get todolist",
                    "value": [
                      {
                        "id": "1",
                        "name": "java",
                        "priority": 3,
                        "tags": [
                          "Java", "Programming"
                        ]
                      },
                      {
                        "id": "2",
                        "name": "golang",
                        "priority": 3,
                        "tags": [
                          "Golang", "Programming"
                        ]
                      }
                    ]
                  }
                }
              }
            }
          }
        },
        "parameters": [
          {
            "name": "name",
            "in": "query",
            "required": false,
            "description": "Filter todolist by name",
            "schema": {
              "type": "string",
              "nullable": true,
              "minLength": 6,
              "maxLength": 200
            },
            "examples": {
              "java": {
                "description": "Example java",
                "value": "java"
              },
              "golang": {
                "description": "Example Golang",
                "value": "Golang"
              }
            }
          },
          {
            "name": "include done",
            "in": "query",
            "required": false,
            "description": "In include done todolist",
            "schema": {
              "type": "boolean",
              "nullable": true,
              "default": false
            }
          }
        ]
      },
      "post": {
        "security": [
          {
            "TodolistAuth": []
          }
        ],
        "tags": ["Todolist"],
        "summary": "Create new todolist",
        "description": "Create new todolist to db",
        "requestBody": {
          "required": true,
          "content": {
            "application/json": {
              "schema": {
                "$ref": "#/components/schemas/CreateOrUpdateTodolist"
              },
              "examples": {
                "java": {
                  "description": "Example create todolist java",
                  "value": {
                    "name": "Java",
                    "priority": 3,
                    "tags": [
                      "Java",
                      "Programing"
                    ]
                  }
                },
                "golang": {
                  "description": "Example create todolist Golang",
                  "value": {
                    "name": "Golang",
                    "priority": 5,
                    "tags": [
                      "Golang",
                      "Programing"
                    ]
                  }
                }
              }
            }
          }
        },
        "responses": {
          "200": {
            "description": "Success create todolist",
            "content": {
              "application/json": {
                "schema": {
                  "$ref": "#/components/schemas/Todolist"
                },
                "examples": {
                  "java": {
                    "description": "Success create java todolist",
                    "value": {
                      "id": "1",
                      "name": "java",
                      "priority": 3,
                      "tags": [
                        "Java", "Programming"
                      ]
                    }
                  },
                  "golang": {
                    "description": "Success create golang todolist",
                    "value": {
                      "id": "2",
                      "name": "golang",
                      "priority": 3,
                      "tags": [
                        "Golang", "Programming"
                      ]
                    }
                  }
                }
              }
            }
          }
        }
      }
    },
    "/todolist/{id}": {
      "put": {
        "security": [
          {
            "TodolistAuth": []
          }
        ],
        "tags": ["Todolist"],
        "summary": "Update existing todolist",
        "description": "Update existing todolist in db",
        "responses": {
          "200": {
            "description": "Success update todolist",
            "content": {
              "application/json": {
                "schema": {
                  "$ref": "#/components/schemas/Todolist"
                },
                "examples": {
                  "java": {
                    "description": "Success update java todolist",
                    "value": {
                      "id": "1",
                      "name": "java",
                      "priority": 3,
                      "tags": [
                        "Java", "Programming"
                      ]
                    }
                  },
                  "golang": {
                    "description": "Success create golang todolist",
                    "value": {
                      "id": "2",
                      "name": "golang",
                      "priority": 3,
                      "tags": [
                        "Golang", "Programming"
                      ]
                    }
                  }
                }
              }
            }
          }
        },
        "requestBody": {
          "required": true,
          "content": {
            "application/json": {
              "schema": {
                "$ref": "#/components/schemas/CreateOrUpdateTodolist"
              }
            }
          }
        },
        "parameters": [
          {
            "$ref": "#/components/parameters/TodolistId"
          }
        ]
      },
      "delete": {
        "security": [
          {
            "TodolistAuth": []
          }
        ],
        "tags": ["Todolist"],
        "summary": "Delete existing todolist",
        "description": "Delete ecisting todolist in db",
        "responses": {
          "200": {
            "description": "Success delete todolist",
            "content": {
              "application/json": {
                "schema": {
                  "type": "object",
                  "properties": {
                    "success": {
                      "type": "boolean"
                    }
                  }
                },
                "examples": {
                  "success": {
                    "description": "Success delete todolist",
                    "value": {
                      "success": true
                    }
                  }
                }
              }
            }
          },
          "404": {
            "description": "Not found todolist",
            "content": {
              "application/json": {
                "schema": {
                  "type": "object",
                  "properties": {
                    "failed": {
                      "type": "boolean"
                    }
                  }
                },
                "examples": {
                  "failed": {
                    "description": "Failed delete todolist",
                    "value": {
                      "success": false
                    }
                  }
                }
              }
            }
          }
        },
        "parameters": [
          {
            "$ref": "#/components/parameters/TodolistId"
          }
        ]
      }
    }
  },
  "components": {
    "securitySchemes": {
      "TodolistAuth": {
        "description": "Authentication for todolist restfull api",
        "type": "apiKey",
        "in": "header",
        "name": "X-API-Key"
      }
    },
    "parameters": {
      "TodolistId": {
        "name": "Todolist id",
        "in": "path",
        "required": true,
        "description": "Todolist id for update",
        "schema": {
          "type": "number",
          "nullable": false,
          "minLength": 1,
          "maxLength": 4
        },
        "examples": {
          "java": {
            "description": "Sample Todolist id for java",
            "value": "1"
          },
          "golang": {
            "description": "Sample Todolist id for go",
            "value": "2"
          }
        }
      }
    },
    "schemas": {
      "Todolist": {
        "type": "object",
        "properties": {
          "id": {
            "type": "string"
          },
          "name": {
            "type": "string"
          },
          "priority": {
            "type": "number",
            "format": "int32"
          },
          "tags": {
            "type": "array",
            "items": {
              "type": "string"
            }
          }
        }
      },
      "CreateOrUpdateTodolist": {
        "type": "object",
        "properties": {
          "name": {
            "type": "string"
          },
          "priority": {
            "type": "number",
            "format": "int32"
          },
          "tags": {
            "type": "array",
            "items": {
              "type": "string"
            }
          }
        }
      },
      "ArrayTodolist": {
        "type": "array",
        "items": {
          "$ref": "#/components/schemas/Todolist"
        }
      }
    }
  }
}
